0	0
1	1.22171793133237
2	1.39401778613585
3	1.52401998761583
4	1.60636727790772
5	1.70060547648961
6	1.75695130506892
7	1.83981079208134
8	1.8783719134912
9	1.95446702630142
10	1.99701551742082
11	2.03124642542485
12	2.09756487142999
13	2.13605422761979
14	2.18477244531606
15	2.22884631078479
16	2.2739451082154
17	2.31450641197336
18	2.33849332187925
19	2.37244695664014
20	2.39572782530436
21	2.46196278989559
22	2.51407417072809
23	2.54892846737338
24	2.59818204520375
25	2.6289010736524
26	2.62890584711848
27	2.67250705441058
28	2.68015464680676
29	2.70904595970874
30	2.74657021148673
31	2.8279627159505
32	2.82796748941659
33	2.82797226288267
34	2.91836714579565
35	2.91837191926173
36	2.96632843125331
37	2.97831028595848
38	3.01317082510707
39	3.06332875485338
40	3.06397255615841
41	3.0650758508383
42	3.15728284563423
43	3.15728761910032
44	3.1572923925664
45	3.23435582589323
46	3.29045445671392
47	3.3323877083168
48	3.33239248178288
49	3.33239725524897
50	3.33240202871505
51	3.3324448867654
52	3.44089163256083
53	3.44089640602691
54	3.44090117949299
55	3.44090595295907
56	3.49711618742606
57	3.49712096089214
58	3.63102773499146
59	3.63103250845754
60	3.63103728192362
61	3.63104205538971
62	3.64267131893072
63	3.6426760923968
64	3.74463232060883
65	3.74761792380445
66	3.74762269727053
67	3.74762747073662
68	3.7476322442027
69	3.84572524886343
70	3.87595415172162
71	3.87611818402981
72	3.8763990398378
73	3.87653973053742
74	3.87655751570702
75	3.8765622891731
76	3.87656706263919
77	3.87657183610527
78	3.87657660957135
81	3.97609280833796
84	4.01491218636426
90	4.0488687523743
94	4.04887352584039
96	4.04887829930647
102	4.05768155488238
108	4.07746156245241
